<?xml version="1.0" encoding="utf-8"?>
<!-- Generator: Adobe Illustrator 23.0.1, SVG Export Plug-In . SVG Version: 6.00 Build 0)  -->
<svg version="1.1" id="Capa_1" xmlns="http://www.w3.org/2000/svg" xmlns:xlink="http://www.w3.org/1999/xlink" x="0px" y="0px"
	 viewBox="0 0 512 512" style="enable-background:new 0 0 512 512;" xml:space="preserve">
<style type="text/css">
	.st0{fill:#FFFFFF;}
</style>
<g>
	<path class="st0" d="M381.6,278.7L325,254.4c19.1-7.8,32.6-26.6,32.6-48.4V100.6c0-26.9-10.5-52.1-29.5-71.1
		c-19-19-44.3-29.5-71.2-29.5c-55.5,0-100.6,45.1-100.6,100.6V206c0,21.7,13.2,40.3,32.1,48.2l-57,24.8c-23.7,10-39,33-39,58.7v32.8
		c0,38.6,30,70.1,68.4,72.1c0.4,0.1,0.9,0.1,1.3,0.1c0.3,0,0.5,0,0.8,0c0.6,0,1.2,0,1.8,0h15.1c3.8,38.8,36.6,69.3,76.4,69.3
		c20.9,0,40.5-8.3,55.1-23.3c2.9-3,2.8-7.7-0.2-10.6c-3-2.9-7.7-2.8-10.6,0.2C288.7,490.3,273,497,256.1,497
		c-34,0-61.8-27.7-61.8-61.7c0,0,0,0,0,0c0,0,0,0,0,0c0-34,27.7-61.7,61.8-61.7c34.1,0,61.8,27.7,61.8,61.8v0c0,0,0,0,0,0
		c0,6.3-0.9,12.5-2.8,18.4c-1.2,4,1,8.2,4.9,9.4c4,1.2,8.2-1,9.4-4.9c1.6-5,2.6-10.1,3.1-15.3h14.9c0.6,0,1.2,0,1.8,0
		c0.3,0,0.6,0.1,0.9,0.1c0.6,0,1.1-0.1,1.6-0.2c38.2-2.2,67.9-33.6,67.9-72.1V337C419.6,311.8,404.7,289,381.6,278.7L381.6,278.7z
		 M220.4,248.4V227c10.6,5.7,22.7,8.9,35.6,8.9c12.9,0,25-3.2,35.6-8.9v21.4L256,279.5L220.4,248.4z M306.6,243.3v-26.7
		c14.5-12.9,23.9-31.3,25.2-51.9h6.1c1.6,0,3.2-0.2,4.7-0.7v42C342.6,226.2,326.5,242.6,306.6,243.3z M331.9,149.6v-26.2h5.9
		c1.6,0,2.9,1.3,2.9,2.9v20.5c0,1.6-1.3,2.9-2.9,2.9L331.9,149.6L331.9,149.6z M256.9,15c22.9,0,44.4,8.9,60.5,25.1
		c16.2,16.2,25.1,37.7,25.1,60.5v8.5c-1.5-0.4-3.1-0.7-4.7-0.7c-15.4-0.7-20.8,3.5-37.8,3.5c-34.6,0-65-22.1-75.7-55
		c-1.3-3.9-5.5-6.1-9.4-4.8c-3.9,1.3-6.1,5.5-4.8,9.4c12.7,39.1,48.8,65.3,90,65.3c5.7,0,11.4-0.5,16.9-1.5V160
		c0,33.6-27.3,60.9-60.9,60.9c-33.6,0-60.9-27.3-60.9-60.9l0-38.3c4-1.4,8.6-3.9,12.8-8.3c2.1-2.2,4-4.8,5.4-7.5
		c1.9-3.7,0.6-8.2-3.1-10.1c-3.7-1.9-8.2-0.6-10.1,3.1c-0.8,1.5-1.8,2.9-3,4.1c-3.5,3.6-7.7,5-10.2,5.4h-12.7c-1,0-1.9,0.1-2.9,0.3
		v-8.1C171.3,53.4,209.7,15,256.9,15L256.9,15z M171.3,126.3c0-1.6,1.3-2.8,2.9-2.8h5.9v26.2h-5.9c-1.6,0-2.8-1.3-2.9-2.8V126.3z
		 M171.3,206v-41.6c0.9,0.1,1.9,0.3,2.9,0.3h6.1c1.3,20.6,10.7,39,25.2,51.9v26.6C186.3,241.5,171.3,225.5,171.3,206z M404.6,370.5
		c0,28.1-20.1,51.5-47.1,56.3v-80.6c0-4.1-3.4-7.5-7.5-7.5s-7.5,3.4-7.5,7.5v81.5h-10c-3.8-38.8-36.6-69.3-76.4-69.3
		c-39.8,0-72.6,30.5-76.4,69.3h-10.1v-81.5c0-4.1-3.4-7.5-7.5-7.5s-7.5,3.4-7.5,7.5v80.6c-27-4.7-47.2-28.1-47.2-56.4v-32.8
		c0-19.6,11.7-37.3,29.9-44.9l44.5-19.4l13.9,12.2c1.4,1.2,3.2,1.9,4.9,1.9c2.1,0,4.2-0.9,5.7-2.6c2.7-3.1,2.4-7.9-0.7-10.6
		l-8.6-7.5l14.5-6.3l39.5,34.5c1.4,1.2,3.2,1.9,4.9,1.9c1.8,0,3.5-0.6,4.9-1.9l39.8-34.7l15.9,6.8l-59.6,52.1l-29-25.3
		c-3.1-2.7-7.9-2.4-10.6,0.7c-2.7,3.1-2.4,7.9,0.7,10.6l29.6,25.8c2.6,2.3,5.9,3.5,9.2,3.5c3.3,0,6.6-1.1,9.2-3.4l65.7-57.3
		l43.8,18.8c17.6,7.8,29,25.3,29,44.5L404.6,370.5L404.6,370.5z"/>
	<path class="st0" d="M278.2,409.8l-37.8,37.8l-10-10c-2.9-2.9-7.7-2.9-10.6,0s-2.9,7.7,0,10.6l15.4,15.4c1.5,1.5,3.4,2.2,5.3,2.2
		c1.9,0,3.8-0.7,5.3-2.2l43.1-43.1c2.9-2.9,2.9-7.7,0-10.6C285.9,406.9,281.1,406.9,278.2,409.8z"/>
</g>
</svg>
