[applicant_id] => 251
    [title] => Ms
    [first_name] => Sohail
    [first_middle_name] => Khan
    [second_middle_name] => Muzakkar
    [third_middle_name] => Azad
    [present_sur_name] => Ali
    [hasOtherSurName] => yes
    [hasValidLicence] => yes
    [hasValidPassport] => yes
    [gender] => male
    [dob] => 02/12/2020
    [country] => American Samoa
    [postcode] => 46000
    [currentAddress] => G-10 Islamabad
    [streetName] => RWP
    [town] => Rawalpindi
    [fromDate] => 15/12/2020
    [toDate] => 17/12/2020
    [postcode_1] => 46000
    [line_1] => RWP 
    [line_11] => G-11
    [townCity_1] => Gujar Khan
    [fromDate_1] => 15/12/2020
    [toDate_1] => 16/12/2020
    [country_1] => American Samoa
    [postcode_2] => 46009
    [line_2] => Lahore 
    [line_22] => Islamabad
    [townCity_2] => Karachi
    [fromDate_2] => 31/12/2020
    [toDate_2] => 27/12/2020
    [country_2] => Andorra
    [postcode_3] => 46000
    [line_3] => G- 12 
    [line_32] => Islamabad
    [townCity_3] => Multan
    [fromDate_3] => 22/12/2020
    [toDate_3] => 10/12/2020
    [country_3] => Andorra
    [postcode_4] => 46000
    [line_4] => G-13 
    [line_44] => Pindi
    [townCity_4] => Rawalpindi
    [fromDate_4] => 24/12/2020
    [toDate_4] => 16/12/2020
    [country_4] => Algeria
    [postcode_5] => 46000
    [line_5] => RWP
    [line_55] => Gujar Khan
    [townCity_5] => Pindi
    [fromDate_5] => 02/12/2020
    [toDate_5] => 19/12/2020
    [country_5] => Argentina
    [start_living_date] => G-13 Islamabad
    [DBS_profile_no] => yes
    [view_DBS_certificate] => yes
    [concent_thirdparty_email] => muzakkar66@gmail.com
    [request_paper_certificate] => yes
    [birth_town] => Meltan keyens
    [birth_country] => Bahamas
    [uk_insurance_avaliable] => yes
    [telephone_number] => +44 7911 123456
    [mobile_contact] => +44 7911 123459
    [applicant_email] => ali22@gmail.com
    [passportNo] => 123456789
    [passport_file] => image.png
    [passport_issue_country] => American Samoa
    [driving_license_file] => images (1).jpg
    [DrivingLicenceNo] => absde1234567
    [licence_issue_country] => American Samoa
    [proof_of_address_file] => 0922045324329.png
    [visa_file] => Web Development.jpg
    [additional_docs_file] => Muzakkar-cv.pdf
)